{
  "_id": "614ab09938d6310001481520",
  "id": "614ab09938d6310001481520",
  "name": "STAR LOGIN API Policy",
  "org_id": "613656ebe8eff0000132ab0a",
  "rate": 1000,
  "per": 60,
  "quota_max": -1,
  "quota_renewal_rate": -1,
  "throttle_interval": -1,
  "throttle_retry_limit": -1,
  "max_query_depth": -1,
  "access_rights": {
    "01660e8d92344b236ba919814cfab92c": {
      "api_name": "STAR LOGIN 1.0.0 #DCOE #STAR",
      "api_id": "01660e8d92344b236ba919814cfab92c",
      "versions": [
        "1.0.0"
      ],
      "allowed_urls": [],
      "restricted_types": [],
      "limit": null,
      "field_access_rights": [],
      "allowance_scope": ""
    }
  },
  "hmac_enabled": false,
  "active": true,
  "is_inactive": false,
  "date_created": "2021-09-22T04:27:05.934Z",
  "tags": [],
  "key_expires_in": 3600,
  "partitions": {
    "quota": true,
    "rate_limit": true,
    "complexity": false,
    "acl": true,
    "per_api": false
  },
  "last_updated": "1632709115",
  "meta_data": {}
}